<svg width="308" height="62" viewBox="0 0 308 62" fill="none" xmlns="http://www.w3.org/2000/svg" xmlns:xlink="http://www.w3.org/1999/xlink">
<rect x="0.5" y="-0.5" width="307" height="61" rx="9.5" transform="matrix(1 0 0 -1 0 61)" fill="#AFCB2C" fill-opacity="0.3" stroke="#AFCB2C"/>
<path d="M99.238 31.0977H95.2302V38H92.9685V20.9375H98.6169C100.539 20.9375 102.015 21.375 103.047 22.25C104.086 23.125 104.605 24.3984 104.605 26.0703C104.605 27.1328 104.316 28.0586 103.738 28.8477C103.168 29.6367 102.371 30.2266 101.347 30.6172L105.355 37.8594V38H102.941L99.238 31.0977ZM95.2302 29.2578H98.6873C99.8044 29.2578 100.691 28.9688 101.347 28.3906C102.011 27.8125 102.344 27.0391 102.344 26.0703C102.344 25.0156 102.027 24.207 101.394 23.6445C100.769 23.082 99.863 22.7969 98.6755 22.7891H95.2302V29.2578ZM112.691 38.2344C110.972 38.2344 109.574 37.6719 108.496 36.5469C107.418 35.4141 106.879 33.9023 106.879 32.0117V31.6133C106.879 30.3555 107.117 29.2344 107.594 28.25C108.078 27.2578 108.75 26.4844 109.609 25.9297C110.476 25.3672 111.414 25.0859 112.422 25.0859C114.07 25.0859 115.351 25.6289 116.265 26.7148C117.179 27.8008 117.636 29.3555 117.636 31.3789V32.2812H109.047C109.078 33.5312 109.441 34.543 110.136 35.3164C110.84 36.082 111.73 36.4648 112.808 36.4648C113.574 36.4648 114.222 36.3086 114.754 35.9961C115.285 35.6836 115.75 35.2695 116.148 34.7539L117.472 35.7852C116.41 37.418 114.816 38.2344 112.691 38.2344ZM112.422 26.8672C111.547 26.8672 110.812 27.1875 110.219 27.8281C109.625 28.4609 109.258 29.3516 109.117 30.5H115.469V30.3359C115.406 29.2344 115.109 28.3828 114.578 27.7812C114.047 27.1719 113.328 26.8672 112.422 26.8672ZM121.222 38V26.9961H119.219V25.3203H121.222V24.0195C121.222 22.6602 121.586 21.6094 122.312 20.8672C123.039 20.125 124.066 19.7539 125.394 19.7539C125.894 19.7539 126.39 19.8203 126.883 19.9531L126.765 21.7109C126.398 21.6406 126.008 21.6055 125.594 21.6055C124.89 21.6055 124.347 21.8125 123.965 22.2266C123.582 22.6328 123.39 23.2188 123.39 23.9844V25.3203H126.097V26.9961H123.39V38H121.222ZM136.328 38C136.203 37.75 136.101 37.3047 136.023 36.6641C135.015 37.7109 133.812 38.2344 132.414 38.2344C131.164 38.2344 130.136 37.8828 129.332 37.1797C128.535 36.4688 128.136 35.5703 128.136 34.4844C128.136 33.1641 128.636 32.1406 129.636 31.4141C130.644 30.6797 132.058 30.3125 133.879 30.3125H135.988V29.3164C135.988 28.5586 135.761 27.957 135.308 27.5117C134.855 27.0586 134.187 26.832 133.304 26.832C132.531 26.832 131.883 27.0273 131.359 27.418C130.836 27.8086 130.574 28.2812 130.574 28.8359H128.394C128.394 28.2031 128.617 27.5938 129.062 27.0078C129.515 26.4141 130.125 25.9453 130.89 25.6016C131.664 25.2578 132.511 25.0859 133.433 25.0859C134.894 25.0859 136.039 25.4531 136.867 26.1875C137.695 26.9141 138.125 27.918 138.156 29.1992V35.0352C138.156 36.1992 138.304 37.125 138.601 37.8125V38H136.328ZM132.73 36.3477C133.41 36.3477 134.054 36.1719 134.664 35.8203C135.273 35.4688 135.715 35.0117 135.988 34.4492V31.8477H134.289C131.633 31.8477 130.304 32.625 130.304 34.1797C130.304 34.8594 130.531 35.3906 130.984 35.7734C131.437 36.1562 132.019 36.3477 132.73 36.3477ZM143.91 38H141.742V25.3203H143.91V38ZM141.566 21.957C141.566 21.6055 141.672 21.3086 141.883 21.0664C142.101 20.8242 142.422 20.7031 142.844 20.7031C143.265 20.7031 143.586 20.8242 143.804 21.0664C144.023 21.3086 144.133 21.6055 144.133 21.957C144.133 22.3086 144.023 22.6016 143.804 22.8359C143.586 23.0703 143.265 23.1875 142.844 23.1875C142.422 23.1875 142.101 23.0703 141.883 22.8359C141.672 22.6016 141.566 22.3086 141.566 21.957ZM153.519 27.2656C153.191 27.2109 152.836 27.1836 152.453 27.1836C151.031 27.1836 150.066 27.7891 149.558 29V38H147.39V25.3203H149.5L149.535 26.7852C150.246 25.6523 151.254 25.0859 152.558 25.0859C152.98 25.0859 153.301 25.1406 153.519 25.25V27.2656ZM160.551 38.2344C158.832 38.2344 157.433 37.6719 156.355 36.5469C155.277 35.4141 154.738 33.9023 154.738 32.0117V31.6133C154.738 30.3555 154.976 29.2344 155.453 28.25C155.937 27.2578 156.609 26.4844 157.469 25.9297C158.336 25.3672 159.273 25.0859 160.281 25.0859C161.929 25.0859 163.211 25.6289 164.125 26.7148C165.039 27.8008 165.496 29.3555 165.496 31.3789V32.2812H156.906C156.937 33.5312 157.301 34.543 157.996 35.3164C158.699 36.082 159.59 36.4648 160.668 36.4648C161.433 36.4648 162.082 36.3086 162.613 35.9961C163.144 35.6836 163.609 35.2695 164.008 34.7539L165.332 35.7852C164.269 37.418 162.676 38.2344 160.551 38.2344ZM160.281 26.8672C159.406 26.8672 158.672 27.1875 158.078 27.8281C157.484 28.4609 157.117 29.3516 156.976 30.5H163.328V30.3359C163.265 29.2344 162.969 28.3828 162.437 27.7812C161.906 27.1719 161.187 26.8672 160.281 26.8672ZM176.324 38H174.156V20H176.324V38ZM185.066 38.2344C183.347 38.2344 181.949 37.6719 180.871 36.5469C179.793 35.4141 179.254 33.9023 179.254 32.0117V31.6133C179.254 30.3555 179.492 29.2344 179.969 28.25C180.453 27.2578 181.125 26.4844 181.984 25.9297C182.851 25.3672 183.789 25.0859 184.797 25.0859C186.445 25.0859 187.726 25.6289 188.64 26.7148C189.554 27.8008 190.011 29.3555 190.011 31.3789V32.2812H181.422C181.453 33.5312 181.816 34.543 182.511 35.3164C183.215 36.082 184.105 36.4648 185.183 36.4648C185.949 36.4648 186.597 36.3086 187.129 35.9961C187.66 35.6836 188.125 35.2695 188.523 34.7539L189.847 35.7852C188.785 37.418 187.191 38.2344 185.066 38.2344ZM184.797 26.8672C183.922 26.8672 183.187 27.1875 182.594 27.8281C182 28.4609 181.633 29.3516 181.492 30.5H187.844V30.3359C187.781 29.2344 187.484 28.3828 186.953 27.7812C186.422 27.1719 185.703 26.8672 184.797 26.8672ZM203.57 36.4648C204.344 36.4648 205.019 36.2305 205.597 35.7617C206.176 35.293 206.496 34.707 206.558 34.0039H208.609C208.57 34.7305 208.32 35.4219 207.859 36.0781C207.398 36.7344 206.781 37.2578 206.008 37.6484C205.242 38.0391 204.429 38.2344 203.57 38.2344C201.844 38.2344 200.469 37.6602 199.445 36.5117C198.429 35.3555 197.922 33.7773 197.922 31.7773V31.4141C197.922 30.1797 198.148 29.082 198.601 28.1211C199.054 27.1602 199.703 26.4141 200.547 25.8828C201.398 25.3516 202.402 25.0859 203.558 25.0859C204.98 25.0859 206.16 25.5117 207.097 26.3633C208.043 27.2148 208.547 28.3203 208.609 29.6797H206.558C206.496 28.8594 206.183 28.1875 205.621 27.6641C205.066 27.1328 204.379 26.8672 203.558 26.8672C202.457 26.8672 201.601 27.2656 200.992 28.0625C200.39 28.8516 200.09 29.9961 200.09 31.4961V31.9062C200.09 33.3672 200.39 34.4922 200.992 35.2812C201.594 36.0703 202.453 36.4648 203.57 36.4648ZM218.875 38C218.75 37.75 218.648 37.3047 218.57 36.6641C217.562 37.7109 216.359 38.2344 214.961 38.2344C213.711 38.2344 212.683 37.8828 211.879 37.1797C211.082 36.4688 210.683 35.5703 210.683 34.4844C210.683 33.1641 211.183 32.1406 212.183 31.4141C213.191 30.6797 214.605 30.3125 216.426 30.3125H218.535V29.3164C218.535 28.5586 218.308 27.957 217.855 27.5117C217.402 27.0586 216.734 26.832 215.851 26.832C215.078 26.832 214.429 27.0273 213.906 27.418C213.383 27.8086 213.121 28.2812 213.121 28.8359H210.941C210.941 28.2031 211.164 27.5938 211.609 27.0078C212.062 26.4141 212.672 25.9453 213.437 25.6016C214.211 25.2578 215.058 25.0859 215.98 25.0859C217.441 25.0859 218.586 25.4531 219.414 26.1875C220.242 26.9141 220.672 27.918 220.703 29.1992V35.0352C220.703 36.1992 220.851 37.125 221.148 37.8125V38H218.875ZM215.277 36.3477C215.957 36.3477 216.601 36.1719 217.211 35.8203C217.82 35.4688 218.261 35.0117 218.535 34.4492V31.8477H216.836C214.179 31.8477 212.851 32.625 212.851 34.1797C212.851 34.8594 213.078 35.3906 213.531 35.7734C213.984 36.1562 214.566 36.3477 215.277 36.3477ZM226.457 38H224.289V20H226.457V38ZM235.023 36.4648C235.797 36.4648 236.472 36.2305 237.051 35.7617C237.629 35.293 237.949 34.707 238.011 34.0039H240.062C240.023 34.7305 239.773 35.4219 239.312 36.0781C238.851 36.7344 238.234 37.2578 237.461 37.6484C236.695 38.0391 235.883 38.2344 235.023 38.2344C233.297 38.2344 231.922 37.6602 230.898 36.5117C229.883 35.3555 229.375 33.7773 229.375 31.7773V31.4141C229.375 30.1797 229.601 29.082 230.054 28.1211C230.508 27.1602 231.156 26.4141 232 25.8828C232.851 25.3516 233.855 25.0859 235.011 25.0859C236.433 25.0859 237.613 25.5117 238.551 26.3633C239.496 27.2148 240 28.3203 240.062 29.6797H238.011C237.949 28.8594 237.636 28.1875 237.074 27.6641C236.519 27.1328 235.832 26.8672 235.011 26.8672C233.91 26.8672 233.054 27.2656 232.445 28.0625C231.844 28.8516 231.543 29.9961 231.543 31.4961V31.9062C231.543 33.3672 231.844 34.4922 232.445 35.2812C233.047 36.0703 233.906 36.4648 235.023 36.4648ZM250.328 36.7461C249.484 37.7383 248.246 38.2344 246.613 38.2344C245.261 38.2344 244.23 37.8438 243.519 37.0625C242.816 36.2734 242.461 35.1094 242.453 33.5703V25.3203H244.621V33.5117C244.621 35.4336 245.402 36.3945 246.965 36.3945C248.621 36.3945 249.722 35.7773 250.269 34.543V25.3203H252.437V38H250.375L250.328 36.7461ZM258.097 38H255.929V20H258.097V38Z" fill="black"/>
<rect x="53.3533" y="58.8789" width="36" height="36" transform="rotate(-137.057 53.3533 58.8789)" fill="url(#pattern0)"/>
<defs>
<pattern id="pattern0" patternContentUnits="objectBoundingBox" width="1" height="1">
<use xlink:href="#image0" transform="scale(0.0277778)"/>
</pattern>
<image id="image0" width="36" height="36" xlink:href="data:image/png;base64,iVBORw0KGgoAAAANSUhEUgAAACQAAAAkCAQAAABLCVATAAABN0lEQVR4Ae3VAWcCYRjA8b9KHTjAhovtS9wn2AnTB2iYABNDNIARAKFtuqHvsRDtE8wEoIFRBMsCEL3j8RB0d+7e10C/B1SPv+i9N/7TJU4EfLvKGFcZ4ypjXGWMq4yhR4vQPqPDigF1crlgiTk6O0Z4xVNPTPjF6HxyVjQFUKbBu75e4BdLHXT1nSkUSQnV0dRtkZRSIwktqeZPKeXzI6lr+2tkKKEx1iI9BtYCCa1J9EifPmWy1PSUJ1rLQmD/jeayEJHlSvbmJBrLwpAM2b9aUxY2+KTx2chek0RVfSReSRPrya6Roo2R6ZDkTjfapCoxlbU9XY65Z69Pf4kMPguMzIyICooKDWb6yRc+2TjnA6Oz5Y0XnpmwLXJDesTsEu7sGI9c6gxY2f6LHIS0eKDHDSEnlv4AG+nMnQhWq4gAAAAASUVORK5CYII="/>
</defs>
</svg>
