<svg width="1193" height="1178" viewBox="0 0 1193 1178" fill="none" xmlns="http://www.w3.org/2000/svg">
<path d="M1172.5 589C1172.5 902.73 914.861 1157.5 596.5 1157.5C278.139 1157.5 20.5 902.73 20.5 589C20.5 275.27 278.139 20.5 596.5 20.5C914.861 20.5 1172.5 275.27 1172.5 589Z" fill="#AFCB2C" stroke="#AFCB2C" stroke-width="41"/>
<ellipse cx="617.5" cy="612" rx="575.5" ry="566" fill="#21272B"/>
<circle cx="596.472" cy="588.528" r="552.296" fill="white"/>
</svg>
